…
3. Use filter() to create a data frame of just the flights that departed 2 hours late or more. What fraction of flights departed at least 2 hours late?
-------------------------------------------------------------------------------------------------------------------------------------------------------

``` r
### Create filter:
delayedflights <- filter(.data = flights, flights$dep_delay >= 2) #filter data frame for flights that departed ≥2 late
delayedflights
```

    ## # A tibble: 120,382 x 19
    ##     year month   day dep_time sched_dep_time dep_delay arr_time sched_arr_time
    ##    <int> <int> <int>    <int>          <int>     <dbl>    <int>          <int>
    ##  1  2013     1     1      517            515         2      830            819
    ##  2  2013     1     1      533            529         4      850            830
    ##  3  2013     1     1      542            540         2      923            850
    ##  4  2013     1     1      608            600         8      807            735
    ##  5  2013     1     1      611            600        11      945            931
    ##  6  2013     1     1      613            610         3      925            921
    ##  7  2013     1     1      623            610        13      920            915
    ##  8  2013     1     1      632            608        24      740            728
    ##  9  2013     1     1      644            636         8      931            940
    ## 10  2013     1     1      702            700         2     1058           1014
    ## # … with 120,372 more rows, and 11 more variables: arr_delay <dbl>,
    ## #   carrier <chr>, flight <int>, tailnum <chr>, origin <chr>, dest <chr>,
    ## #   air_time <dbl>, distance <dbl>, hour <dbl>, minute <dbl>, time_hour <dttm>
…
    ## [1] 0.3574542

4. Use mutate() and paste0() to create a column that contains the combined airline and flight number (e.g., “UA5041”).
----------------------------------------------------------------------------------------------------------------------

``` r
airline_flightnum <- mutate(flights, flightnum = paste0(flights$carrier, flights$flight))
airline_flightnum #contains the column "flightnum" with information about combined airline and flight number
```

    ## # A tibble: 336,776 x 20
    ##     year month   day dep_time sched_dep_time dep_delay arr_time sched_arr_time
    ##    <int> <int> <int>    <int>          <int>     <dbl>    <int>          <int>
    ##  1  2013     1     1      517            515         2      830            819
    ##  2  2013     1     1      533            529         4      850            830
    ##  3  2013     1     1      542            540         2      923            850
    ##  4  2013     1     1      544            545        -1     1004           1022
    ##  5  2013     1     1      554            600        -6      812            837
    ##  6  2013     1     1      554            558        -4      740            728
    ##  7  2013     1     1      555            600        -5      913            854
    ##  8  2013     1     1      557            600        -3      709            723
    ##  9  2013     1     1      557            600        -3      838            846
    ## 10  2013     1     1      558            600        -2      753            745
    ## # … with 336,766 more rows, and 12 more variables: arr_delay <dbl>,
    ## #   carrier <chr>, flight <int>, tailnum <chr>, origin <chr>, dest <chr>,
    ## #   air_time <dbl>, distance <dbl>, hour <dbl>, minute <dbl>, time_hour <dttm>,
    ## #   flightnum <chr>
…
    ## `summarise()` regrouping output by 'carrier' (override with `.groups` argument)

``` r
num_flights
```

    ## # A tibble: 4,067 x 3
    ## # Groups:   carrier [16]
    ##    carrier tailnum NumFlights
    ##    <chr>   <chr>        <int>
    ##  1 9E      N146PQ           8
    ##  2 9E      N153PQ           5
    ##  3 9E      N161PQ           3
    ##  4 9E      N162PQ           2
    ##  5 9E      N170PQ           7
    ##  6 9E      N176PQ           7
    ##  7 9E      N181PQ           4
    ##  8 9E      N187PQ           5
    ##  9 9E      N197PQ           2
    ## 10 9E      N200PQ           7
    ## # … with 4,057 more rows
